<svg xmlns="http://www.w3.org/2000/svg" width="49" height="34" viewBox="0 0 49 34">
    <g fill="none" fill-rule="evenodd">
        <ellipse cx="14" cy="14.5" fill="#FFF" rx="10" ry="10.5"/>
        <ellipse cx="36" cy="14.5" fill="#FFF" rx="10" ry="10.5"/>
        <path fill="#F6A623" fill-rule="nonzero" d="M34.953 13.357h-1.581c-.157 0-.284.157-.284.35v1.464c0 .194.127.35.284.35h1.581c.157 0 .284-.157.284-.35v-1.465c0-.192-.127-.35-.284-.35zm-19.571-.024h-2.245v-2.26a.3.3 0 0 0-.3-.302h-1.596a.3.3 0 0 0-.3.301v2.261H8.696c-.165 0-.3.136-.3.302v1.608a.3.3 0 0 0 .3.301h2.245v2.261c0 .167.134.302.3.302h1.596c.165 0 .3-.135.3-.302v-2.26h2.245c.165 0 .3-.136.3-.302v-1.608a.301.301 0 0 0-.3-.302zm25.438.024h-1.582c-.157 0-.284.157-.284.35v1.464c0 .194.127.35.284.35h1.582c.157 0 .284-.157.284-.35v-1.465c0-.192-.127-.35-.284-.35zm-2.997-2.955h-1.454c-.193 0-.348.128-.348.286v1.593c0 .158.156.286.348.286h1.454c.192 0 .347-.127.347-.286v-1.593c0-.158-.155-.286-.347-.286zm0 5.909h-1.454c-.193 0-.348.128-.348.286v1.592c0 .158.156.286.348.286h1.454c.192 0 .347-.128.347-.286v-1.592c0-.158-.155-.286-.347-.286zm11.084 8.752c-.232-2.21-1.202-12.015-1.58-15.494-.512-4.713-4.4-8.248-9.068-8.252-2.18-.001-4.127.703-5.829 2.088-.163.133-.391.307-.565.283-1.448-.206-2.89-.455-4.39-.7V.772S27.452 0 26.611 0h-4.224c-.841 0-.863.772-.863.772v2.216c-1.5.245-2.943.494-4.39.7-.174.024-.403-.15-.566-.283-1.701-1.385-3.649-2.09-5.829-2.088-4.668.004-8.555 3.538-9.068 8.252C1.295 13.048.325 22.853.093 25.063c-.342 3.266.084 7.668 4.228 8.668 3.851.93 7.215-.617 9.334-3.625 1.291-1.834 2.706-3.58 4.086-5.35.131-.17.41-.315.62-.316h12.277c.212.001.49.147.621.316 1.38 1.77 2.795 3.516 4.086 5.35 2.119 3.008 5.483 4.555 9.334 3.625 4.144-1 4.57-5.402 4.228-8.668zm-36.983-4.218c-3.496 0-6.33-2.854-6.33-6.375 0-3.52 2.834-6.375 6.33-6.375s6.33 2.854 6.33 6.375-2.834 6.375-6.33 6.375zm25.152 0c-3.495 0-6.33-2.854-6.33-6.375 0-3.52 2.835-6.375 6.33-6.375 3.496 0 6.33 2.854 6.33 6.375s-2.834 6.375-6.33 6.375z"/>
    </g>
</svg>
